00000000: 4261 7349 4C30 0046 6962 6F6E 6163 6369
00000010: 2073 6571 0000 0000 C101 A548 6F77 206D
00000020: 616E 7920 6E75 6D62 6572 7320 7368 6F75
00000030: 6C64 2077 6520 6765 6E65 7261 7465 3F20
00000040: 0100 0101 C0E0 4F20 01C0 00E0 6DE8 00F0
00000050: 00F0 01E8 4704 12F0 00E8 4704 13F0 00E8
00000060: 4704 1214 1304 2304 31F0 00E0 5F
